Lineage inference • lineaGT
…
The coverage dataset can be filtered calling the
filter_dataset() function.

data(cov.df.example)
data(vaf.df.example)

cov.example.filt = cov.df.example %>%
  filter_dataset(min_cov=5, min_frac=0.05)
#> ℹ Filtering the input dataset with minimum coverage 5 and minimum clusters frac…
#> ✔ Filtering the input dataset with minimum coverage 5 and minimum clusters frac…
#> 

cov.example.filt
#> # A tibble: 264 × 4
#>    IS    timepoints lineage coverage
#>    <chr> <chr>      <chr>      <int>
#>  1 IS100 t1         l1             0
#>  2 IS100 t2         l1           418
#>  3 IS100 t1         l2             0
#>  4 IS100 t2         l2            74
#>  5 IS101 t1         l1           502
#>  6 IS101 t2         l1           186
#>  7 IS101 t1         l2            62
#>  8 IS101 t2         l2           640
#>  9 IS11  t1         l1           128
#> 10 IS11  t2         l1           196
#> # ℹ 254 more rows
…
